6_Lab2a/simulation/qsim/NBtoDC.msim.vcd
$comment
	File created using the following command:
		vcd file NBtoDC.msim.vcd -direction
$end
$date
	Tue Nov 02 15:16:47 2021
$end
$version
	ModelSim Version 2020.1
$end
$timescale
	1ps
$end

$scope module NBtoDC_vlg_vec_tst $end
$var reg 1 ! N $end
$var reg 4 " v [3:0] $end
$var wire 1 # D0 [0] $end
$var wire 1 $ D0 [1] $end
$var wire 1 % D0 [2] $end
$var wire 1 & D0 [3] $end
$var wire 1 ' D0 [4] $end
$var wire 1 ( D0 [5] $end
$var wire 1 ) D0 [6] $end
$var wire 1 * D1 [0] $end
$var wire 1 + D1 [1] $end
$var wire 1 , D1 [2] $end
$var wire 1 - D1 [3] $end
$var wire 1 . D1 [4] $end
$var wire 1 / D1 [5] $end
$var wire 1 0 D1 [6] $end

$scope module i1 $end
$var wire 1 1 gnd $end
$var wire 1 2 vcc $end
$var wire 1 3 unknown $end
$var tri1 1 4 devclrn $end
$var tri1 1 5 devpor $end
$var tri1 1 6 devoe $end
$var wire 1 7 D1[6]~output_o $end
$var wire 1 8 D1[5]~output_o $end
$var wire 1 9 D1[4]~output_o $end
$var wire 1 : D1[3]~output_o $end
$var wire 1 ; D1[2]~output_o $end
$var wire 1 < D1[1]~output_o $end
$var wire 1 = D1[0]~output_o $end
$var wire 1 > D0[6]~output_o $end
$var wire 1 ? D0[5]~output_o $end
$var wire 1 @ D0[4]~output_o $end
$var wire 1 A D0[3]~output_o $end
$var wire 1 B D0[2]~output_o $end
$var wire 1 C D0[1]~output_o $end
$var wire 1 D D0[0]~output_o $end
$var wire 1 E v[3]~input_o $end
$var wire 1 F v[2]~input_o $end
$var wire 1 G v[1]~input_o $end
$var wire 1 H comb_4|LessThan0~0_combout $end
$var wire 1 I N~input_o $end
$var wire 1 J mux3|O~0_combout $end
$var wire 1 K mux2|O~0_combout $end
$var wire 1 L mux1|O~0_combout $end
$var wire 1 M v[0]~input_o $end
$var wire 1 N comb_6|WideOr6~0_combout $end
$var wire 1 O comb_6|WideOr5~0_combout $end
$var wire 1 P comb_6|WideOr4~3_combout $end
$var wire 1 Q comb_6|WideOr4~6_combout $end
$var wire 1 R comb_6|WideOr3~0_combout $end
$var wire 1 S comb_6|WideOr2~0_combout $end
$var wire 1 T comb_6|WideOr1~2_combout $end
$var wire 1 U comb_6|WideOr1~3_combout $end
$var wire 1 V comb_6|WideOr0~0_combout $end
$upscope $end
$upscope $end
$enddefinitions $end
#0
$dumpvars
0!
b0 "
0)
1(
1'
1&
1%
1$
1#
00
0/
0.
0-
0,
0+
0*
01
12
x3
14
15
16
07
08
09
0:
0;
0<
0=
0>
1?
1@
1A
1B
1C
1D
0E
0F
0G
0H
0I
0J
0K
0L
0M
0N
0O
1P
0Q
0R
0S
0T
0U
0V
$end
#31250
b1 "
1M
1V
1T
1R
1Q
1O
0?
0@
0A
0D
0#
0&
0'
0(
#62500
b11 "
b10 "
0M
1G
0V
0R
0Q
0O
0P
1L
1?
1@
1A
1D
1S
1O
1#
1&
1'
1(
1N
1>
0?
0B
0%
0(
1)
#93750
b11 "
1M
0T
0S
1Q
0@
1B
1%
0'
#125000
b111 "
b101 "
b100 "
0M
0G
1F
1S
0Q
1P
0L
1K
1@
0B
1Q
1V
0S
1R
0O
0%
1'
1?
0A
1B
0D
0@
0'
0#
1%
0&
1(
#156250
b101 "
1M
0V
1T
0R
1A
1D
1U
1#
1&
0C
0$
#187500
b111 "
b110 "
0M
1G
1V
1R
0P
1L
0A
0D
0Q
0R
0#
0&
1A
1@
1'
1&
#218750
b111 "
1M
0V
0T
1R
1Q
1O
0N
0>
0?
0@
0A
1D
0U
1#
0&
0'
0(
0)
1C
1$
#250000
b1111 "
b1011 "
b1001 "
b1000 "
0M
0G
0F
1E
1V
0R
0Q
0O
0L
0K
1J
1N
1>
1?
1@
1A
0D
0V
0#
1&
1'
1(
1)
1D
1#
#281250
b1001 "
1M
1R
1Q
0@
0A
0&
0'
#312500
b1011 "
b1010 "
0M
1G
0R
0Q
1P
0J
1H
1;
1<
1@
1A
1&
1'
1+
1,
0N
0>
0)
#343750
b1011 "
1M
1V
1T
1R
1Q
1O
0?
0@
0A
0D
0#
0&
0'
0(
#375000
b1111 "
b1101 "
b1100 "
0M
0G
1F
0V
0T
0R
0O
0P
1L
1U
0C
1?
1A
1D
0U
0Q
1S
1O
1#
1&
1(
0$
1N
1>
0?
0B
1@
1C
1$
1'
0%
0(
1)
#406250
b1101 "
1M
0S
1Q
0@
1B
1%
0'
#437500
b1111 "
b1110 "
0M
1G
1S
0Q
1P
0L
1K
1@
0B
1Q
1V
0S
1R
0O
0%
1'
1?
0A
1B
0D
0@
0'
0#
1%
0&
1(
#468750
b1111 "
1M
0V
1T
0R
1A
1D
1U
1#
1&
0C
0$
#500000
b111 "
b11 "
b1 "
b0 "
0M
0G
0F
0E
1V
0T
1R
0Q
0K
0U
0H
0;
0<
1C
1@
0A
0D
0V
0R
0#
0&
1'
1$
0+
0,
0N
0>
1A
1D
1#
1&
0)
#531250
b1 "
1M
1V
1T
1R
1Q
1O
0?
0@
0A
0D
0#
0&
0'
0(
#562500
b11 "
b10 "
0M
1G
0V
0R
0Q
0O
0P
1L
1?
1@
1A
1D
1S
1O
1#
1&
1'
1(
1N
1>
0?
0B
0%
0(
1)
#593750
b11 "
1M
0T
0S
1Q
0@
1B
1%
0'
#625000
b111 "
b101 "
b100 "
0M
0G
1F
1S
0Q
1P
0L
1K
1@
0B
1Q
1V
0S
1R
0O
0%
1'
1?
0A
1B
0D
0@
0'
0#
1%
0&
1(
#656250
b101 "
1M
0V
1T
0R
1A
1D
1U
1#
1&
0C
0$
#687500
b111 "
b110 "
0M
1G
1V
1R
0P
1L
0A
0D
0Q
0R
0#
0&
1A
1@
1'
1&
#718750
b111 "
1M
0V
0T
1R
1Q
1O
0N
0>
0?
0@
0A
1D
0U
1#
0&
0'
0(
0)
1C
1$
#750000
b1111 "
b1011 "
b1001 "
b1000 "
0M
0G
0F
1E
1V
0R
0Q
0O
0L
0K
1J
1N
1>
1?
1@
1A
0D
0V
0#
1&
1'
1(
1)
1D
1#
#781250
b1001 "
1M
1R
1Q
0@
0A
0&
0'
#812500
b1011 "
b1010 "
0M
1G
0R
0Q
1P
0J
1H
1;
1<
1@
1A
1&
1'
1+
1,
0N
0>
0)
#843750
b1011 "
1M
1V
1T
1R
1Q
1O
0?
0@
0A
0D
0#
0&
0'
0(
#875000
b1111 "
b1101 "
b1100 "
0M
0G
1F
0V
0T
0R
0O
0P
1L
1U
0C
1?
1A
1D
0U
0Q
1S
1O
1#
1&
1(
0$
1N
1>
0?
0B
1@
1C
1$
1'
0%
0(
1)
#906250
b1101 "
1M
0S
1Q
0@
1B
1%
0'
#937500
b1111 "
b1110 "
0M
1G
1S
0Q
1P
0L
1K
1@
0B
1Q
1V
0S
1R
0O
0%
1'
1?
0A
1B
0D
0@
0'
0#
1%
0&
1(
#968750
b1111 "
1M
0V
1T
0R
1A
1D
1U
1#
1&
0C
0$
