1_Lab1.1/simulation/qsim/MUX2to1x8.msim.vcd
$comment
	File created using the following command:
		vcd file MUX2to1x8.msim.vcd -direction
$end
$date
	Sun Jan 16 21:16:19 2022
$end
$version
	ModelSim Version 2020.1
$end
$timescale
	1ps
$end

$scope module MUX2to1x8_vlg_vec_tst $end
$var reg 1 ! s $end
$var reg 1 " x0 $end
$var reg 1 # x1 $end
$var reg 1 $ x2 $end
$var reg 1 % x3 $end
$var reg 1 & x4 $end
$var reg 1 ' x5 $end
$var reg 1 ( x6 $end
$var reg 1 ) x7 $end
$var reg 1 * y0 $end
$var reg 1 + y1 $end
$var reg 1 , y2 $end
$var reg 1 - y3 $end
$var reg 1 . y4 $end
$var reg 1 / y5 $end
$var reg 1 0 y6 $end
$var reg 1 1 y7 $end
$var wire 1 2 m0 $end
$var wire 1 3 m1 $end
$var wire 1 4 m2 $end
$var wire 1 5 m3 $end
$var wire 1 6 m4 $end
$var wire 1 7 m5 $end
$var wire 1 8 m6 $end
$var wire 1 9 m7 $end

$scope module i1 $end
$var wire 1 : gnd $end
$var wire 1 ; vcc $end
$var wire 1 < unknown $end
$var tri1 1 = devclrn $end
$var tri1 1 > devpor $end
$var tri1 1 ? devoe $end
$var wire 1 @ m0~output_o $end
$var wire 1 A m1~output_o $end
$var wire 1 B m2~output_o $end
$var wire 1 C m3~output_o $end
$var wire 1 D m4~output_o $end
$var wire 1 E m5~output_o $end
$var wire 1 F m6~output_o $end
$var wire 1 G m7~output_o $end
$var wire 1 H x0~input_o $end
$var wire 1 I s~input_o $end
$var wire 1 J y0~input_o $end
$var wire 1 K m0~0_combout $end
$var wire 1 L y1~input_o $end
$var wire 1 M x1~input_o $end
$var wire 1 N m1~0_combout $end
$var wire 1 O x2~input_o $end
$var wire 1 P y2~input_o $end
$var wire 1 Q m2~0_combout $end
$var wire 1 R y3~input_o $end
$var wire 1 S x3~input_o $end
$var wire 1 T m3~0_combout $end
$var wire 1 U y4~input_o $end
$var wire 1 V x4~input_o $end
$var wire 1 W m4~0_combout $end
$var wire 1 X x5~input_o $end
$var wire 1 Y y5~input_o $end
$var wire 1 Z m5~0_combout $end
$var wire 1 [ y6~input_o $end
$var wire 1 \ x6~input_o $end
$var wire 1 ] m6~0_combout $end
$var wire 1 ^ x7~input_o $end
$var wire 1 _ y7~input_o $end
$var wire 1 ` m7~0_combout $end
$upscope $end
$upscope $end
$enddefinitions $end
#0
$dumpvars
0!
1"
1#
0$
1%
0&
1'
0(
1)
0*
0+
0,
0-
0.
0/
00
01
12
13
04
15
06
17
08
19
0:
1;
x<
1=
1>
1?
1@
1A
0B
1C
0D
1E
0F
1G
1H
0I
0J
1K
0L
1M
1N
0O
0P
0Q
0R
1S
1T
0U
0V
0W
1X
0Y
1Z
0[
0\
0]
1^
0_
1`
$end
#10000
0"
0#
0%
1&
0)
0H
0M
0S
1V
0^
0K
0N
0T
1W
0`
0G
1D
0C
0A
0@
02
03
05
16
09
#20000
1(
1"
1#
1%
0&
1\
1H
1M
1S
0V
1]
1K
1N
1T
0W
0D
1C
1A
1@
1F
18
12
13
15
06
#30000
1)
0(
0"
0#
1^
0\
0H
0M
1`
0]
0K
0N
0A
0@
0F
1G
19
08
02
03
#31250
1!
1I
0`
0Z
0T
0C
0E
0G
09
07
05
#40000
1$
0'
0%
1O
0X
0S
#50000
1&
1(
1V
1\
#60000
0)
1"
1%
0(
0^
1H
1S
0\
#62500
1*
1.
0!
1J
1U
0I
1K
1W
1T
1Q
1B
1C
1D
1@
12
16
15
14
#70000
0&
0"
0%
1(
0V
0H
0S
1\
0W
0K
0T
1]
1F
0C
0@
0D
06
02
05
18
#80000
1#
0$
0(
1M
0O
0\
1N
0Q
0]
0F
0B
1A
13
04
08
#90000
1%
0#
1$
1(
1S
0M
1O
1\
1T
0N
1Q
1]
1F
1B
0A
1C
15
03
14
18
#93750
1!
1I
0]
1W
0T
0Q
1K
1@
0B
0C
1D
0F
08
16
05
04
12
#100000
1'
1)
0%
0(
1X
1^
0S
0\
#110000
1&
1"
0'
1V
1H
0X
#120000
0)
1(
0"
0^
1\
0H
#125000
1+
1/
0*
0.
0!
1L
1Y
0J
0U
0I
0K
1]
1Q
1B
1F
0@
02
18
14
#130000
1'
1)
1"
1X
1^
1H
1Z
1`
1K
1@
1G
1E
17
19
12
#140000
1%
0&
0'
0)
0"
1S
0V
0X
0^
0H
1T
0W
0Z
0`
0K
0@
0G
0E
0D
1C
15
06
07
09
02
#150000
0$
1'
1"
0O
1X
1H
0Q
1Z
1K
1@
1E
0B
04
17
12
#156250
1!
1I
0]
0T
1N
0K
0@
1A
0C
0F
08
05
13
02
#160000
1#
0(
0%
1&
0'
0"
1M
0\
0S
1V
0X
0H
#170000
1)
1$
0#
1(
1%
1'
1^
1O
0M
1\
1S
1X
#180000
0)
0$
0^
0O
#187500
1*
1.
0!
1J
1U
0I
1W
1]
1T
0N
0A
1C
1F
1D
16
18
15
03
#190000
0&
1#
0(
0%
0'
1)
1$
0V
1M
0\
0S
0X
1^
1O
0W
1N
0]
0T
0Z
1`
1Q
1B
1G
0E
0C
0F
1A
0D
06
13
08
05
07
19
14
#200000
0#
1(
0)
0M
1\
0^
0N
1]
0`
0G
1F
0A
03
18
09
#210000
1"
1&
1%
1#
1)
1H
1V
1S
1M
1^
1K
1W
1T
1N
1`
1G
1A
1C
1D
1@
12
16
15
13
19
#218750
1!
1I
0`
0]
1Z
0T
0Q
0B
0C
1E
0F
0G
09
08
17
05
04
#220000
0(
0"
0%
0#
0\
0H
0S
0M
#230000
0$
0)
1"
1%
1#
0O
0^
1H
1S
1M
#240000
1'
0&
1)
0%
0#
1X
0V
1^
0S
0M
#250000
1,
10
0+
0/
0*
0.
0!
1$
0"
1%
1P
1[
0L
0Y
0J
0U
0I
1O
0H
1S
1Q
0N
0K
0W
1`
1T
1C
1G
0D
0@
0A
1B
14
03
02
06
19
15
#260000
1(
1&
1#
1\
1V
1M
1]
1W
1N
1A
1D
1F
18
16
13
#270000
0'
0)
0$
0%
0#
0X
0^
0O
0S
0M
0Z
0`
0Q
0T
0N
0A
0C
0B
0G
0E
07
09
04
05
03
#280000
1"
1'
1)
1$
1%
1#
1H
1X
1^
1O
1S
1M
1K
1Z
1`
1Q
1T
1N
1A
1C
1B
1G
1E
1@
12
17
19
14
15
13
#281250
1!
1I
0`
0Z
0W
0T
0N
0K
0@
0A
0C
0D
0E
0G
09
07
06
05
03
02
#290000
0'
0)
0$
0%
0#
0X
0^
0O
0S
0M
#300000
1'
1%
1X
1S
#310000
0&
1$
0'
0%
0V
1O
0X
0S
#312500
1*
1.
0!
1J
1U
0I
1K
1@
12
#320000
0(
1#
1&
1'
0\
1M
1V
1X
0]
1N
1W
1Z
1E
1D
1A
0F
08
13
16
17
#330000
0"
1)
0$
0#
0&
0'
0H
1^
0O
0M
0V
0X
0K
1`
0Q
0N
0W
0Z
0E
0D
0A
0B
1G
0@
02
19
04
03
06
07
#340000
1#
1M
1N
1A
13
#343750
1!
1I
0`
1]
1W
1Q
0N
1K
1@
0A
1B
1D
1F
0G
09
18
16
14
03
12
#350000
1(
1"
0)
1$
1\
1H
0^
1O
#360000
1'
0(
0"
1X
0\
0H
#370000
1%
1&
1)
0'
1(
1"
1S
1V
1^
0X
1\
1H
#375000
1+
1/
0*
0.
0!
1L
1Y
0J
0U
0I
1N
1`
1T
1C
1G
1A
13
19
15
#380000
0#
0$
0%
1'
0"
0M
0O
0S
1X
0H
0N
0Q
0T
1Z
0K
0@
1E
0C
0B
0A
03
04
05
17
02
#390000
0&
0(
1$
0'
0V
0\
1O
0X
0W
0]
1Q
0Z
0E
1B
0F
0D
06
08
14
07
#400000
0)
1#
1%
1"
1&
1(
0$
1'
0^
1M
1S
1H
1V
1\
0O
1X
0`
1N
1T
1K
1W
1]
0Q
1Z
1E
0B
1F
1D
1@
1C
1A
0G
09
13
15
12
16
18
04
17
#406250
1!
1I
0W
0T
1Q
0K
0@
1B
0C
0D
06
05
14
02
#410000
0%
0S
#420000
0"
0H
#430000
0&
0V
#437500
1*
1.
0!
1J
1U
0I
0Q
0B
04
#440000
0(
1$
0'
1%
1"
0\
1O
0X
1S
1H
0]
1Q
0Z
1T
1K
1@
1C
0E
1B
0F
08
14
07
15
12
#450000
0#
1(
0$
1'
0M
1\
0O
1X
0N
1]
0Q
1Z
1E
0B
1F
0A
03
18
04
17
#460000
1)
0"
1$
1^
0H
1O
1`
0K
1Q
1B
0@
1G
19
02
14
#468750
1!
1I
0`
1W
0T
1N
1K
1@
1A
0C
1D
0G
09
16
05
13
12
#470000
1&
0%
0'
0)
1"
1V
0S
0X
0^
1H
#480000
1#
1%
0"
1M
1S
0H
#490000
0(
0$
0&
1'
1)
0#
0\
0O
0V
1X
1^
0M
#500000
1-
11
0,
00
0+
0/
0*
0.
0!
0%
1"
1(
1#
1R
1_
0P
0[
0L
0Y
0J
0U
0I
0S
1H
1\
1M
1`
0Q
0W
0D
0B
1G
19
04
06
#510000
0)
0"
0(
0^
0H
0\
0`
0K
0]
0F
0@
0G
09
02
08
#520000
1%
0#
1)
1S
0M
1^
1T
0N
1`
1G
0A
1C
15
03
19
#530000
1$
0'
1"
1(
1O
0X
1H
1\
1Q
0Z
1K
1]
1F
1@
0E
1B
14
07
12
18
#531250
1!
1I
0]
0Q
0K
0@
0B
0F
08
04
02
#540000
0)
0$
1'
0^
0O
1X
#550000
0%
0"
1)
0S
0H
1^
#560000
1&
1#
0(
1$
0'
0)
1V
1M
0\
1O
0X
0^
#562500
1*
1.
0!
1J
1U
0I
1W
0`
0T
1Q
1N
1A
1B
0C
0G
1D
16
09
05
14
13
#570000
1%
1"
0&
0#
1(
0$
1S
1H
0V
0M
1\
0O
1T
1K
0W
0N
1]
0Q
0B
1F
0A
0D
1@
1C
15
12
06
03
18
04
#580000
1'
0%
1&
1#
1$
1X
0S
1V
1M
1O
1Z
0T
1W
1N
1Q
1B
1A
1D
0C
1E
17
05
16
13
14
#590000
0(
1%
0\
1S
0]
1T
1C
0F
08
15
#593750
1!
1I
1`
0Z
0Q
0N
0A
0B
0E
1G
19
07
04
03
#600000
0'
0$
1(
0X
0O
1\
#610000
0"
0&
0%
1'
1$
0H
0V
0S
1X
1O
#620000
0'
0X
#625000
1+
1/
0*
0.
0!
1L
1Y
0J
0U
0I
1N
0K
0W
0`
1]
0T
1Q
1B
0C
1F
0G
0D
0@
1A
13
02
06
09
18
05
14
#630000
1)
0#
0(
1'
1^
0M
0\
1X
1`
0N
0]
1Z
1E
0F
0A
1G
19
03
08
17
#640000
1"
1%
0)
1#
1H
1S
0^
1M
1K
1T
0`
1N
1A
0G
1C
1@
12
15
09
13
#656250
1!
1I
1`
0Q
0K
0@
0B
1G
19
04
02
#660000
0$
0%
1)
0O
0S
1^
#670000
1&
1(
0"
0#
1%
1V
1\
0H
0M
1S
#680000
1$
1"
1O
1H
#687500
1*
1.
0!
1J
1U
0I
1K
1W
1]
1Q
0N
0A
1B
1F
1D
1@
12
16
18
14
03
#690000
0'
0(
1#
0%
0"
0X
0\
1M
0S
0H
0Z
0]
1N
0T
0K
0@
0C
1A
0F
0E
07
08
13
05
02
#700000
0)
0&
0#
1"
0^
0V
0M
1H
0`
0W
0N
1K
1@
0A
0D
0G
09
06
03
12
#710000
1(
1&
1#
0"
1\
1V
1M
0H
1]
1W
1N
0K
0@
1A
1D
1F
18
16
13
02
#718750
1!
1I
1`
0]
1Z
1T
0Q
1K
1@
0B
1C
1E
0F
1G
19
08
17
15
04
12
#720000
0$
1'
1%
1)
0(
0O
1X
1S
1^
0\
#730000
1"
1$
0%
0)
1H
1O
0S
0^
#740000
1%
1)
1S
1^
#750000
1,
10
0+
0/
0*
0.
0!
1(
0"
0%
0)
1P
1[
0L
0Y
0J
0U
0I
1\
0H
0S
0^
1Q
1]
0K
0`
0T
0C
0G
0@
1F
1B
14
18
02
09
05
#760000
0#
0$
1"
1%
0M
0O
1H
1S
0N
0Q
1K
1T
1C
1@
0B
0A
03
04
12
15
#770000
0&
0(
1#
0%
0V
0\
1M
0S
0W
0]
1N
0T
0C
1A
0F
0D
06
08
13
05
#780000
1$
0"
0#
1%
1O
0H
0M
1S
1Q
0K
0N
1T
1C
0A
0@
1B
14
02
03
15
#781250
1!
1I
1`
1]
0Z
0E
1F
1G
19
18
07
#790000
1&
0$
1#
1V
0O
1M
#800000
1"
0&
1$
1H
0V
1O
#810000
0'
1)
0$
0X
1^
0O
#812500
1*
1.
0!
1J
1U
0I
1K
0]
0Q
1N
1A
0B
0F
1@
12
08
04
13
#820000
1(
0"
1&
0)
1\
0H
1V
0^
1]
0K
1W
0`
0G
1D
0@
1F
18
02
16
09
#830000
0%
0#
1"
0&
1)
0S
0M
1H
0V
1^
0T
0N
1K
0W
1`
1G
0D
1@
0A
0C
05
03
12
06
19
#840000
1'
1$
0(
1%
1&
0)
1X
1O
0\
1S
1V
0^
1Z
1Q
0]
1T
1W
0`
0G
1D
1C
0F
1B
1E
17
14
08
15
16
09
#843750
1!
1I
1`
1]
0Z
0E
1F
1G
19
18
07
#850000
0'
1)
0X
1^
#860000
1#
0$
0&
1'
1M
0O
0V
1X
#870000
1(
0%
0)
1$
1&
1\
0S
0^
1O
1V
#875000
1+
1/
0*
0.
0!
1L
1Y
0J
0U
0I
1N
1Z
0`
0T
0C
0G
1E
1A
13
17
09
05
#880000
0"
0H
0K
0@
02
#890000
0#
1)
0$
1"
0M
1^
0O
1H
0N
1`
0Q
1K
1@
0B
1G
0A
03
19
04
12
#900000
0(
1#
0)
1$
0\
1M
0^
1O
0]
1N
0`
1Q
1B
0G
1A
0F
08
13
09
14
#906250
1!
1I
1`
1]
0W
1T
0K
0@
1C
0D
1F
1G
19
18
06
15
02
#910000
0&
0"
1)
0V
0H
1^
#920000
1%
1(
1"
1S
1\
1H
#930000
0#
0)
0"
0M
0^
0H
#937500
1*
1.
0!
1J
1U
0I
0`
0N
0A
0G
09
03
#940000
1&
1#
1)
1"
1V
1M
1^
1H
1W
1N
1`
1K
1@
1G
1A
1D
16
13
19
12
#950000
0(
0&
0#
0)
0\
0V
0M
0^
0]
0W
0N
0`
0G
0A
0D
0F
08
06
03
09
#960000
0$
1(
1&
1#
0O
1\
1V
1M
0Q
1]
1W
1N
1A
1D
1F
0B
04
18
16
13
#968750
1!
1I
1`
1Q
1B
1G
19
14
#970000
0%
0"
0(
0&
0S
0H
0\
0V
#980000
1%
1"
1(
1&
1S
1H
1\
1V
#990000
0'
1)
1$
0#
0X
1^
1O
0M
