2_Lab1.2/simulation/qsim/Mux5to1.msim.vcd
$comment
	File created using the following command:
		vcd file Mux5to1.msim.vcd -direction
$end
$date
	Sun Oct 24 18:20:13 2021
$end
$version
	ModelSim Version 2020.1
$end
$timescale
	1ps
$end

$scope module Mux5to1_vlg_vec_tst $end
$var reg 1 ! s0 $end
$var reg 1 " s1 $end
$var reg 1 # s2 $end
$var reg 1 $ u0 $end
$var reg 1 % u1 $end
$var reg 1 & u2 $end
$var reg 1 ' v0 $end
$var reg 1 ( v1 $end
$var reg 1 ) v2 $end
$var reg 1 * w0 $end
$var reg 1 + w1 $end
$var reg 1 , w2 $end
$var reg 1 - x0 $end
$var reg 1 . x1 $end
$var reg 1 / x2 $end
$var reg 1 0 y0 $end
$var reg 1 1 y1 $end
$var reg 1 2 y2 $end
$var wire 1 3 m0 $end
$var wire 1 4 m1 $end
$var wire 1 5 m2 $end

$scope module i1 $end
$var wire 1 6 gnd $end
$var wire 1 7 vcc $end
$var wire 1 8 unknown $end
$var tri1 1 9 devclrn $end
$var tri1 1 : devpor $end
$var tri1 1 ; devoe $end
$var wire 1 < m0~output_o $end
$var wire 1 = m1~output_o $end
$var wire 1 > m2~output_o $end
$var wire 1 ? x0~input_o $end
$var wire 1 @ s1~input_o $end
$var wire 1 A w0~input_o $end
$var wire 1 B v0~input_o $end
$var wire 1 C s0~input_o $end
$var wire 1 D u0~input_o $end
$var wire 1 E m0~0_combout $end
$var wire 1 F m0~1_combout $end
$var wire 1 G y0~input_o $end
$var wire 1 H s2~input_o $end
$var wire 1 I m0~2_combout $end
$var wire 1 J y1~input_o $end
$var wire 1 K w1~input_o $end
$var wire 1 L u1~input_o $end
$var wire 1 M m1~0_combout $end
$var wire 1 N x1~input_o $end
$var wire 1 O v1~input_o $end
$var wire 1 P m1~1_combout $end
$var wire 1 Q m1~2_combout $end
$var wire 1 R u2~input_o $end
$var wire 1 S v2~input_o $end
$var wire 1 T m2~0_combout $end
$var wire 1 U w2~input_o $end
$var wire 1 V x2~input_o $end
$var wire 1 W m2~1_combout $end
$var wire 1 X y2~input_o $end
$var wire 1 Y m2~2_combout $end
$upscope $end
$upscope $end
$enddefinitions $end
#0
$dumpvars
0!
0"
0#
0$
0%
1&
0'
0(
1)
1*
1+
0,
1-
1.
0/
10
01
12
03
04
15
06
17
x8
19
1:
1;
0<
0=
1>
1?
0@
1A
0B
0C
0D
0E
0F
1G
0H
0I
0J
1K
0L
0M
1N
0O
0P
0Q
1R
1S
1T
0U
0V
1W
1X
1Y
$end
#5000
00
1/
0G
1V
#10000
1$
0*
1%
0.
11
0&
10
0/
1D
0A
1L
0N
1J
0R
1G
0V
1E
1M
0T
1F
1P
0W
1I
1Q
0Y
0>
1=
1<
13
14
05
#15000
0-
00
1/
0?
0G
1V
#20000
1'
0)
1,
0$
1*
1.
1&
10
0/
1B
0S
1U
0D
1A
1N
1R
1G
0V
0E
1T
0F
1W
0I
1Y
1>
0<
03
15
#25000
00
1/
0G
1V
#30000
1(
0+
0%
1-
0,
1$
0*
10
0/
1O
0K
0L
1?
0U
1D
0A
1G
0V
0M
1E
0P
1F
0Q
1I
1<
0=
04
13
#35000
00
1/
0G
1V
#40000
01
1)
0.
0&
1+
1,
0$
10
0/
0J
1S
0N
0R
1K
1U
0D
1G
0V
0T
0E
0W
0F
0Y
0I
0<
0>
05
03
#45000
0-
00
1/
0?
0G
1V
#50000
1*
0+
0,
1$
10
0/
1A
0K
0U
1D
1G
0V
1E
1F
1I
1<
13
#55000
02
00
1/
0X
0G
1V
#60000
0(
0)
1.
1-
1,
0$
10
0/
0O
0S
1N
1?
1U
0D
1G
0V
0E
0F
0I
0<
03
#62500
1!
1C
1E
1F
1I
1<
13
#65000
00
1/
0G
1V
#70000
11
1&
1+
0.
0,
1$
10
0/
1J
1R
1K
0N
0U
1D
1G
0V
#75000
0-
00
1/
0?
0G
1V
#80000
0*
1)
0+
1.
1,
0$
10
0/
0A
1S
0K
1N
1U
0D
1G
0V
1T
1W
1Y
1>
15
#85000
00
1/
0G
1V
#90000
0'
1%
1(
0&
1-
1*
0,
1$
10
0/
0B
1L
1O
0R
1?
1A
0U
1D
1G
0V
0E
1P
0F
1Q
1=
14
0I
0<
03
#95000
00
1/
0G
1V
#100000
01
0)
1'
0*
0$
10
0/
0J
0S
1B
0A
0D
1G
0V
0T
1E
0W
1F
0Y
1I
1<
0>
05
13
#105000
0-
00
1/
0?
0G
1V
#110000
12
1+
1,
11
1*
1$
10
0/
1X
1K
1U
1J
1A
1D
1G
0V
#115000
00
1/
0G
1V
#120000
0(
1)
0'
1-
0+
01
0$
10
0/
0O
1S
0B
1?
0K
0J
0D
1G
0V
0P
1T
0E
1W
0F
0Q
0=
04
1Y
0I
0<
1>
15
03
#125000
1"
0!
00
1/
1@
0C
0G
1V
0T
1F
1I
1<
13
#130000
0.
1&
0*
1'
11
1$
10
0/
0N
1R
0A
1B
1J
1D
1G
0V
0F
0I
0<
03
#135000
0-
00
1/
0?
0G
1V
#140000
0%
0,
0)
1.
0&
0'
0$
10
0/
0L
0U
0S
1N
0R
0B
0D
1G
0V
0W
0Y
0>
05
#145000
00
1/
0G
1V
#150000
1(
01
1-
1'
1$
10
0/
1O
0J
1?
1B
1D
1G
0V
#155000
00
1/
0G
1V
#160000
1,
1)
0.
11
0$
10
0/
1U
1S
0N
1J
0D
1G
0V
1W
1Y
1>
15
#165000
02
0-
00
1/
0X
0?
0G
1V
#170000
1+
1*
1%
1&
0'
1.
01
1$
10
0/
1K
1A
1L
1R
0B
1N
0J
1D
1G
0V
1M
1F
1P
1I
1<
13
1Q
1=
14
#175000
00
1/
0G
1V
#180000
0(
0,
0)
1-
0$
10
0/
0O
0U
0S
1?
0D
1G
0V
0W
0Y
0>
05
#185000
00
1/
0G
1V
#187500
1!
1C
1T
1E
1W
1Y
1>
15
#190000
0*
0%
0&
1'
0.
1,
1$
10
0/
0A
0L
0R
1B
0N
1U
1D
1G
0V
0P
0W
0Q
0Y
0>
0=
04
05
#195000
0-
00
1/
0?
0G
1V
0F
1W
0I
1Y
1>
0<
03
15
#200000
1)
1*
1%
0'
1.
0,
0$
10
0/
1S
1A
1L
0B
1N
0U
0D
1G
0V
1P
0W
1Q
0Y
0>
1=
14
05
#205000
00
1/
0G
1V
1W
1Y
1>
15
#210000
0+
1(
1-
0%
1'
1,
1$
10
0/
0K
1O
1?
0L
1B
1U
1D
1G
0V
1F
0W
1I
0Y
0>
1<
13
05
#215000
00
1/
0G
1V
1W
1Y
1>
15
#220000
12
11
1&
0)
0*
0'
0,
0$
10
0/
1X
1J
1R
0S
0A
0B
0U
0D
1G
0V
0W
0Y
0>
05
#225000
0-
00
1/
0?
0G
1V
0F
1W
0I
1Y
1>
0<
03
15
#230000
01
1,
1$
10
0/
0J
1U
1D
1G
0V
0W
0Y
0>
05
#235000
00
1/
0G
1V
1W
1Y
1>
15
#240000
1+
0(
1)
1*
1-
11
0$
10
0/
1K
0O
1S
1A
1?
1J
0D
1G
0V
1F
0W
1I
0Y
0>
1<
13
05
#245000
00
1/
0G
1V
1W
1Y
1>
15
#250000
1#
0"
0!
0.
0&
0+
0*
01
1$
10
0/
1H
0@
0C
0N
0R
0K
0A
0J
1D
1G
0V
0T
0M
0Q
0=
0W
0P
04
#255000
0-
00
1/
0?
0G
1V
0I
0<
03
#260000
0,
0)
1+
0$
10
0/
0U
0S
1K
0D
1G
0V
0E
1I
1<
0F
13
#265000
00
1/
0G
1V
0I
0<
03
#270000
1%
1(
1&
1*
11
1-
1$
10
0/
1L
1O
1R
1A
1J
1?
1D
1G
0V
1M
1T
1E
1Q
1I
1<
1=
1P
1W
1F
14
13
#275000
02
00
1/
0X
0G
1V
0Y
0I
0<
0>
05
03
#280000
1'
1.
1)
0*
01
0$
10
0/
1B
1N
1S
0A
0J
0D
1G
0V
0E
0Q
1I
1<
0=
0F
04
13
#285000
0-
00
1/
0?
0G
1V
0I
0<
03
#290000
1,
0+
0%
11
1$
10
0/
1U
0K
0L
1J
1D
1G
0V
0M
1E
1Q
1I
1<
1=
0P
1F
14
13
#295000
00
1/
0G
1V
0I
0<
03
#300000
0(
0&
0'
0)
1-
0,
1+
1%
01
0$
10
0/
0O
0R
0B
0S
1?
0U
1K
1L
0J
0D
1G
0V
0T
0E
1M
0Q
1I
1<
0=
0W
0F
1P
04
13
#305000
00
1/
0G
1V
0I
0<
03
#310000
0.
1'
1,
0+
0%
1$
10
0/
0N
1B
1U
0K
0L
1D
1G
0V
1E
0M
1I
1<
1F
0P
13
#312500
1!
1C
#315000
0-
00
1/
0?
0G
1V
0I
0<
03
#320000
1)
11
0,
1%
0$
10
0/
1S
1J
0U
1L
0D
1G
0V
1T
1Q
1I
1<
1=
1W
14
13
#325000
00
1/
0G
1V
0I
0<
03
#330000
12
1*
1(
1&
1.
0'
1-
1,
1$
10
0/
1X
1A
1O
1R
1N
0B
1?
1U
1D
1G
0V
1P
0E
1Y
1I
1<
1>
0F
15
13
#335000
00
1/
0G
1V
0I
0<
03
#340000
1+
0)
0%
0*
0.
1'
0,
0$
10
0/
1K
0S
0L
0A
0N
1B
0U
0D
1G
0V
0T
1E
1I
1<
0W
1F
13
#345000
0-
00
1/
0?
0G
1V
0I
0<
03
#350000
01
0+
1%
1*
1,
1$
10
0/
0J
0K
1L
1A
1U
1D
1G
0V
0Q
1I
1<
0=
04
13
#355000
00
1/
0G
1V
0I
0<
03
#360000
0(
1)
1-
11
1+
0,
0$
10
0/
0O
1S
1?
1J
1K
0U
0D
1G
0V
0P
1T
1Q
1I
1<
1=
1W
14
13
#365000
00
1/
0G
1V
0I
0<
03
#370000
0&
1.
0+
1$
10
0/
0R
1N
0K
1D
1G
0V
1I
1<
13
#375000
1"
0!
0-
00
1/
1@
0C
0?
0G
1V
0T
0F
0E
0I
0<
0W
1F
03
#380000
0'
0%
0*
0)
01
0.
0$
10
0/
0B
0L
0A
0S
0J
0N
0D
1G
0V
0F
0Q
1I
1<
0=
04
13
#385000
02
00
1/
0X
0G
1V
0Y
0I
0<
0>
05
03
#390000
1(
1,
1+
1-
1'
1%
1*
1$
10
0/
1O
1U
1K
1?
1B
1L
1A
1D
1G
0V
1W
1M
1F
1I
1<
1P
13
#395000
00
1/
0G
1V
0I
0<
03
#400000
1)
1.
0$
10
0/
1S
1N
0D
1G
0V
1I
1<
13
#405000
0-
00
1/
0?
0G
1V
0I
0<
03
#410000
1&
0,
0'
0%
0.
1$
10
0/
1R
0U
0B
0L
0N
1D
1G
0V
0W
1I
1<
13
#415000
00
1/
0G
1V
0I
0<
03
#420000
11
0(
0)
1-
1'
1.
0$
10
0/
1J
0O
0S
1?
1B
1N
0D
1G
0V
1Q
1I
1<
1=
14
13
#425000
00
1/
0G
1V
0I
0<
03
#430000
0&
1%
01
1$
10
0/
0R
1L
0J
1D
1G
0V
0Q
1I
1<
0=
04
13
#435000
0-
00
1/
0?
0G
1V
0I
0<
03
#437500
1!
1C
1T
1E
1W
0F
#440000
12
0*
1,
1)
0.
0$
10
0/
1X
0A
1U
1S
0N
0D
1G
0V
0W
0P
1Y
1I
1<
1>
15
13
#445000
00
1/
0G
1V
1W
0I
0<
03
#450000
1(
0'
1&
1-
0,
1$
10
0/
1O
0B
1R
1?
0U
1D
1G
0V
1F
0W
1I
1<
13
#455000
00
1/
0G
1V
1W
0I
0<
03
#460000
11
1*
0)
1.
1,
0$
10
0/
1J
1A
0S
1N
1U
0D
1G
0V
1P
0W
1Q
1I
1<
1=
14
13
#465000
0-
00
1/
0?
0G
1V
0F
1W
0I
0<
03
#470000
0%
1'
01
0*
1$
10
0/
0L
1B
0J
0A
1D
1G
0V
0W
0Q
1I
1<
0=
04
13
#475000
00
1/
0G
1V
1W
0I
0<
03
#480000
0(
0&
1)
1-
1*
0$
10
0/
0O
0R
1S
1?
1A
0D
1G
0V
1F
0W
1I
1<
13
#485000
00
1/
0G
1V
1W
0I
0<
03
#490000
0.
11
1&
0*
1$
10
0/
0N
1J
1R
0A
1D
1G
0V
0P
0W
1Q
1I
1<
1=
14
13
#495000
02
0-
00
1/
0X
0?
0G
1V
0F
1W
0Y
0I
0<
0>
05
03
#500000
0#
0"
0!
1%
0)
1.
0&
1*
0$
10
0/
0H
0@
0C
1L
0S
1N
0R
1A
0D
1G
0V
0T
1F
0E
1P
1Y
0Q
0=
1>
0W
0F
15
04
1I
1Q
1=
1<
13
14
0Y
0I
0<
0>
05
03
#505000
00
1/
0G
1V
#510000
0,
1(
1-
1&
1$
10
0/
0U
1O
1?
1R
1D
1G
0V
1T
1E
1W
1F
1Y
1I
1<
1>
15
13
#515000
00
1/
0G
1V
#520000
0+
1)
0*
0$
10
0/
0K
1S
0A
0D
1G
0V
0E
0F
0I
0<
03
#525000
0-
00
1/
0?
0G
1V
#530000
0'
0%
0.
1,
0&
1+
1$
10
0/
0B
0L
0N
1U
0R
1K
1D
1G
0V
1E
0M
0T
1F
0P
0W
1I
0Q
0Y
0>
0=
1<
13
04
05
#535000
00
1/
0G
1V
#540000
01
0(
0)
1*
1-
1%
0,
1&
0+
0$
10
0/
0J
0O
0S
1A
1?
1L
0U
1R
0K
0D
1G
0V
1T
1M
0E
1W
1P
0F
1Y
1Q
0I
0<
1=
1>
15
14
03
#545000
00
1/
0G
1V
#550000
12
11
0*
0%
1,
0&
1+
1$
10
0/
1X
1J
0A
0L
1U
0R
1K
1D
1G
0V
0M
0T
1E
0P
0W
1F
0Q
0Y
1I
1<
0>
0=
04
05
13
#555000
0-
00
1/
0?
0G
1V
#560000
1)
01
1*
1%
0,
1&
0+
0$
10
0/
1S
0J
1A
1L
0U
1R
0K
0D
1G
0V
1T
1M
0E
1W
1P
0F
1Y
1Q
0I
0<
1=
1>
15
14
03
#562500
1!
1C
0P
0M
0Q
0=
04
#565000
00
1/
0G
1V
#570000
1.
1(
1-
11
1,
1$
10
0/
1N
1O
1?
1J
1U
1D
1G
0V
1P
1Q
1=
14
#575000
00
1/
0G
1V
#580000
1'
0)
0*
1+
0.
0$
10
0/
1B
0S
0A
1K
0N
0D
1G
0V
1E
0T
1F
0W
1I
0Y
0>
1<
13
05
#585000
0-
00
1/
0?
0G
1V
#590000
01
1*
1.
1$
10
0/
0J
1A
1N
1D
1G
0V
#595000
00
1/
0G
1V
#600000
0%
0(
1)
0+
1-
0.
0$
10
0/
0L
0O
1S
0K
1?
0N
0D
1G
0V
0P
1T
1W
0Q
0=
04
1Y
1>
15
#605000
02
00
1/
0X
0G
1V
#610000
0'
11
1.
1$
10
0/
0B
1J
1N
1D
1G
0V
0E
0F
0I
0<
03
#615000
0-
00
1/
0?
0G
1V
#620000
0&
0*
0)
1+
0.
0$
10
0/
0R
0A
0S
1K
0N
0D
1G
0V
0T
0W
0Y
0>
05
#625000
1"
0!
00
1/
1@
0C
0G
1V
1W
1M
1P
1Y
1>
15
1Q
1=
14
#630000
1(
01
1-
0+
1$
10
0/
1O
0J
1?
0K
1D
1G
0V
0M
0P
0Q
0=
04
#635000
00
1/
0G
1V
#640000
0,
1)
11
0$
10
0/
0U
1S
1J
0D
1G
0V
0W
0Y
0>
05
#645000
0-
00
1/
0?
0G
1V
#650000
1%
1'
1*
1+
1$
10
0/
1L
1B
1A
1K
1D
1G
0V
1M
1F
1P
1I
1<
13
1Q
1=
14
#655000
00
1/
0G
1V
#660000
12
0(
1,
0)
1-
0'
0*
0+
0$
10
0/
1X
0O
1U
0S
1?
0B
0A
0K
0D
1G
0V
1W
0F
0M
0P
1Y
0I
0<
1>
15
03
0Q
0=
04
#665000
00
1/
0G
1V
#670000
1.
01
0%
1*
1$
10
0/
1N
0J
0L
1A
1D
1G
0V
1F
1I
1<
13
#675000
0-
00
1/
0?
0G
1V
#680000
0,
1)
1'
1+
0.
0$
10
0/
0U
1S
1B
1K
0N
0D
1G
0V
0W
1M
1P
0Y
0>
05
1Q
1=
14
#685000
00
1/
0G
1V
#687500
1!
1C
1T
0P
1E
1W
0F
0Q
0=
04
1Y
0I
0<
1>
15
03
#690000
1(
11
0*
1-
0'
1$
10
0/
1O
1J
0A
1?
0B
1D
1G
0V
1F
0W
1I
0Y
0>
1<
13
05
#695000
00
1/
0G
1V
1W
1Y
1>
15
#700000
1&
1%
0)
0+
01
1'
0$
10
0/
1R
1L
0S
0K
0J
1B
0D
1G
0V
0W
0Y
0>
05
#705000
0-
00
1/
0?
0G
1V
0F
1W
0I
1Y
1>
0<
03
15
#710000
1*
0'
1$
10
0/
1A
0B
1D
1G
0V
0W
0Y
0>
05
#715000
02
00
1/
0X
0G
1V
1W
1Y
1>
15
#720000
0(
0&
1)
1+
11
1-
0$
10
0/
0O
0R
1S
1K
1J
1?
0D
1G
0V
1F
0W
1I
0Y
0>
1<
13
05
#725000
00
1/
0G
1V
1W
1Y
1>
15
#730000
1,
0+
1$
10
0/
1U
0K
1D
1G
0V
0W
0Y
0>
05
#735000
0-
00
1/
0?
0G
1V
0F
1W
0I
1Y
1>
0<
03
15
#740000
0%
0)
01
0$
10
0/
0L
0S
0J
0D
1G
0V
0W
0Y
0>
05
#745000
00
1/
0G
1V
1W
1Y
1>
15
#750000
1#
0"
0!
1(
0,
1-
1%
1$
10
0/
1H
0@
0C
1O
0U
1?
1L
1D
1G
0V
0T
1F
1P
0Y
1I
1<
0>
0W
05
13
#755000
00
1/
0G
1V
0I
0<
03
#760000
1+
1)
1,
0%
0$
10
0/
1K
1S
1U
0L
0D
1G
0V
0M
0E
1I
1<
0P
0F
13
#765000
0-
00
1/
0?
0G
1V
0I
0<
03
#770000
12
11
0+
1$
10
0/
1X
1J
0K
1D
1G
0V
1E
1Y
1Q
1I
1<
1=
1>
1F
15
14
13
#775000
00
1/
0G
1V
0I
0<
03
#780000
1.
0*
1&
0(
0)
1-
01
1+
0$
10
0/
1N
0A
1R
0O
0S
1?
0J
1K
0D
1G
0V
1T
0E
0Q
1I
1<
0=
1W
0F
04
13
#785000
00
1/
0G
1V
0I
0<
03
#790000
1'
0+
1$
10
0/
1B
0K
1D
1G
0V
1E
1I
1<
1F
13
#795000
0-
00
1/
0?
0G
1V
0I
0<
03
#800000
1%
0.
0&
1)
1+
0$
10
0/
1L
0N
0R
1S
1K
0D
1G
0V
1M
0T
0E
1I
1<
1P
0W
0F
13
#805000
00
1/
0G
1V
0I
0<
03
#810000
1*
1(
11
1-
1.
1&
0+
1$
10
0/
1A
1O
1J
1?
1N
1R
0K
1D
1G
0V
1T
1E
1Q
1I
1<
1=
1W
1F
14
13
#812500
1!
1C
0M
#815000
00
1/
0G
1V
0I
0<
03
#820000
0,
0%
0)
0*
01
0.
0&
0$
10
0/
0U
0L
0S
0A
0J
0N
0R
0D
1G
0V
0T
0Q
1I
1<
0=
0W
04
13
#825000
02
0-
00
1/
0X
0?
0G
1V
0Y
0I
0<
0>
05
03
#830000
0'
1,
1%
11
1$
10
0/
0B
1U
1L
1J
1D
1G
0V
0E
1Q
1I
1<
1=
0F
14
13
#835000
00
1/
0G
1V
0I
0<
03
#840000
0(
1)
1*
1-
1'
0,
01
0$
10
0/
0O
1S
1A
1?
1B
0U
0J
0D
1G
0V
0P
1T
1E
0Q
1I
1<
0=
1W
1F
04
13
#845000
00
1/
0G
1V
0I
0<
03
#850000
1.
1&
0'
1,
11
1$
10
0/
1N
1R
0B
1U
1J
1D
1G
0V
0E
1Q
1I
1<
1=
0F
14
13
#855000
0-
00
1/
0?
0G
1V
0I
0<
03
#860000
0)
0*
0.
1'
0,
0$
10
0/
0S
0A
0N
1B
0U
0D
1G
0V
0T
1E
1I
1<
0W
1F
13
#865000
00
1/
0G
1V
0I
0<
03
#870000
1+
1(
01
1-
1.
0'
1$
10
0/
1K
1O
0J
1?
1N
0B
1D
1G
0V
1P
0E
0Q
1I
1<
0=
0F
04
13
#875000
1"
0!
00
1/
1@
0C
0G
1V
1M
0P
0I
0<
1P
03
#880000
12
0%
0&
1)
1*
1,
0+
1'
0$
10
0/
1X
0L
0R
1S
1A
1U
0K
1B
0D
1G
0V
0M
1F
1W
1Y
1I
1<
1>
0P
15
13
#885000
0-
00
1/
0?
0G
1V
0I
0<
03
#890000
11
0.
1%
0'
1$
10
0/
1J
0N
1L
0B
1D
1G
0V
1Q
1I
1<
1=
14
13
#895000
00
1/
0G
1V
0I
0<
03
#900000
0(
0)
1+
1-
0$
10
0/
0O
0S
1K
1?
0D
1G
0V
1M
1I
1<
1P
13
#905000
00
1/
0G
1V
0I
0<
03
#910000
0*
01
0%
1'
1$
10
0/
0A
0J
0L
1B
1D
1G
0V
0F
0Q
1I
1<
0=
04
13
#915000
0-
00
1/
0?
0G
1V
0I
0<
03
#920000
1)
0+
1*
11
1%
0'
0$
10
0/
1S
0K
1A
1J
1L
0B
0D
1G
0V
0M
1F
1Q
1I
1<
1=
0P
14
13
#925000
00
1/
0G
1V
0I
0<
03
#930000
1(
1-
01
0%
1'
1$
10
0/
1O
1?
0J
0L
1B
1D
1G
0V
0Q
1I
1<
0=
04
13
#935000
02
00
1/
0X
0G
1V
0Y
0I
0<
0>
05
03
#937500
1!
1C
1T
1P
1M
1E
0P
#940000
1&
0,
0)
11
1%
0$
10
0/
1R
0U
0S
1J
1L
0D
1G
0V
0W
1Q
1I
1<
1=
14
13
#945000
0-
00
1/
0?
0G
1V
0F
1W
0I
0<
03
#950000
1+
0%
1$
10
0/
1K
0L
1D
1G
0V
0W
1I
1<
13
#955000
00
1/
0G
1V
1W
0I
0<
03
#960000
0(
1)
1-
0+
1%
0$
10
0/
0O
1S
1?
0K
1L
0D
1G
0V
1F
0W
1I
1<
13
#965000
00
1/
0G
1V
1W
0I
0<
03
#970000
0'
1,
01
1+
1$
10
0/
0B
1U
0J
1K
1D
1G
0V
0W
0Q
1I
1<
0=
04
13
#975000
0-
00
1/
0?
0G
1V
0F
1W
0I
0<
03
#980000
1.
0*
0)
0%
1'
11
0+
0$
10
0/
1N
0A
0S
0L
1B
1J
0K
0D
1G
0V
1P
0W
1Q
1I
1<
1=
14
13
#985000
00
1/
0G
1V
1W
0I
0<
03
#990000
12
1(
0,
1-
1$
10
0/
1X
1O
0U
1?
1D
1G
0V
0W
1F
1Y
1I
1<
1>
15
13
#995000
00
1/
0G
1V
1W
0I
0<
03
