10_test revision/simulation/qsim/revision.msim.vcd
$comment
	File created using the following command:
		vcd file revision.msim.vcd -direction
$end
$date
	Wed Dec 01 16:48:47 2021
$end
$version
	ModelSim Version 2020.1
$end
$timescale
	1ps
$end

$scope module revision_vlg_vec_tst $end
$var reg 1 ! A $end
$var reg 1 " B $end
$var wire 1 # F $end

$scope module i1 $end
$var wire 1 $ gnd $end
$var wire 1 % vcc $end
$var wire 1 & unknown $end
$var tri1 1 ' devclrn $end
$var tri1 1 ( devpor $end
$var tri1 1 ) devoe $end
$var wire 1 * F~output_o $end
$var wire 1 + A~input_o $end
$var wire 1 , B~input_o $end
$var wire 1 - comb_3|f~combout $end
$upscope $end
$upscope $end
$enddefinitions $end
#0
$dumpvars
0!
0"
0#
0$
1%
x&
1'
1(
1)
0*
0+
0,
0-
$end
#125000
1"
1,
1-
1*
1#
#250000
1!
0"
1+
0,
#375000
1"
1,
0-
0*
0#
#500000
0!
0"
0+
0,
#625000
1"
1,
1-
1*
1#
#750000
1!
0"
1+
0,
#875000
1"
1,
0-
0*
0#
