6_Lab2b/simulation/qsim/add7seg.msim.vcd
$comment
	File created using the following command:
		vcd file add7seg.msim.vcd -direction
$end
$date
	Fri Nov 12 14:05:32 2021
$end
$version
	ModelSim Version 2020.1
$end
$timescale
	1ps
$end

$scope module add7seg_vlg_vec_tst $end
$var reg 4 ! a [3:0] $end
$var reg 4 " b [3:0] $end
$var reg 1 # cin $end
$var wire 1 $ D0 [0] $end
$var wire 1 % D0 [1] $end
$var wire 1 & D0 [2] $end
$var wire 1 ' D0 [3] $end
$var wire 1 ( D0 [4] $end
$var wire 1 ) D0 [5] $end
$var wire 1 * D0 [6] $end
$var wire 1 + D1 [0] $end
$var wire 1 , D1 [1] $end
$var wire 1 - D1 [2] $end
$var wire 1 . D1 [3] $end
$var wire 1 / D1 [4] $end
$var wire 1 0 D1 [5] $end
$var wire 1 1 D1 [6] $end

$scope module i1 $end
$var wire 1 2 gnd $end
$var wire 1 3 vcc $end
$var wire 1 4 unknown $end
$var tri1 1 5 devclrn $end
$var tri1 1 6 devpor $end
$var tri1 1 7 devoe $end
$var wire 1 8 D1[6]~output_o $end
$var wire 1 9 D1[5]~output_o $end
$var wire 1 : D1[4]~output_o $end
$var wire 1 ; D1[3]~output_o $end
$var wire 1 < D1[2]~output_o $end
$var wire 1 = D1[1]~output_o $end
$var wire 1 > D1[0]~output_o $end
$var wire 1 ? D0[6]~output_o $end
$var wire 1 @ D0[5]~output_o $end
$var wire 1 A D0[4]~output_o $end
$var wire 1 B D0[3]~output_o $end
$var wire 1 C D0[2]~output_o $end
$var wire 1 D D0[1]~output_o $end
$var wire 1 E D0[0]~output_o $end
$var wire 1 F a[1]~input_o $end
$var wire 1 G b[1]~input_o $end
$var wire 1 H cin~input_o $end
$var wire 1 I b[0]~input_o $end
$var wire 1 J a[0]~input_o $end
$var wire 1 K FA1|COUT~0_combout $end
$var wire 1 L FA2|COUT~0_combout $end
$var wire 1 M b[2]~input_o $end
$var wire 1 N a[2]~input_o $end
$var wire 1 O FA3|COUT~0_combout $end
$var wire 1 P a[3]~input_o $end
$var wire 1 Q b[3]~input_o $end
$var wire 1 R FA2|S~0_combout $end
$var wire 1 S comb_3|z~0_combout $end
$var wire 1 T comb_3|z~1_combout $end
$var wire 1 U FA3|S~0_combout $end
$var wire 1 V FA4|S~0_combout $end
$var wire 1 W FA4|S~1_combout $end
$var wire 1 X mux2|O~0_combout $end
$var wire 1 Y mux1|O~0_combout $end
$var wire 1 Z mux1|O~1_combout $end
$var wire 1 [ mux4|O~0_combout $end
$var wire 1 \ mux3|O~0_combout $end
$var wire 1 ] comb_5|WideOr6~0_combout $end
$var wire 1 ^ comb_5|WideOr5~0_combout $end
$var wire 1 _ comb_5|WideOr4~0_combout $end
$var wire 1 ` comb_5|WideOr3~0_combout $end
$var wire 1 a comb_5|WideOr2~0_combout $end
$var wire 1 b comb_5|WideOr1~0_combout $end
$var wire 1 c comb_5|WideOr0~0_combout $end
$upscope $end
$upscope $end
$enddefinitions $end
#0
$dumpvars
b1 !
b0 "
0#
0*
0)
0(
0'
1&
1%
0$
01
00
0/
0.
0-
0,
0+
02
13
x4
15
16
17
08
09
0:
0;
0<
0=
0>
0?
0@
0A
0B
1C
1D
0E
0F
0G
0H
0I
1J
0K
0L
0M
0N
0O
0P
0Q
0R
0S
0T
0U
0V
0W
0X
0Y
1Z
0[
0\
0]
1^
1_
1`
0a
0b
1c
$end
#62500
b11 !
b10 !
b1 "
1I
0J
1F
1R
1X
1S
0c
0`
1]
1?
1B
1E
1$
1'
1*
#125000
b11 "
b11 !
b10 "
1J
0I
1G
0R
1L
0X
1U
1c
1`
1\
0]
0?
0B
0E
0c
1b
0`
0^
0$
0'
0*
1]
1?
1@
1B
0D
1E
1$
0%
1'
1)
1*
#187500
b111 !
b101 !
b100 !
b11 "
1I
0J
0F
1N
1R
0L
1W
0U
0S
1O
0\
1[
1X
1S
0W
1U
0O
1c
1a
1`
1^
1\
0[
0]
0?
0@
0B
0C
0E
0c
0b
0a
0$
0&
0'
0)
0*
1C
1D
1E
1$
1%
1&
#250000
b111 "
b101 "
b101 !
b100 "
1J
0I
0G
1M
0R
1W
0U
1O
0\
1[
0X
0S
1T
1<
1=
0^
0[
1Y
1,
1-
1]
0T
0<
0=
1?
1@
1c
1^
0Z
1[
0Y
1)
1*
0,
0-
0]
0?
0@
0E
0c
0`
0_
0^
1Z
0$
0)
0*
1]
1?
1@
1A
1B
1E
1`
1_
1$
1'
1(
1)
1*
0A
0B
0'
0(
#312500
b111 !
b110 !
b101 "
1I
0J
1F
1R
1X
1S
1c
1b
1a
1^
0]
1T
1<
1=
0?
0@
0C
0D
0E
0[
0X
0$
0%
0&
0)
0*
1,
1-
0b
0a
1C
1D
1%
1&
#375000
b111 "
b111 !
b110 "
1J
0I
1G
0R
1L
1Y
1U
0Z
0Y
1X
0c
1a
0`
0_
1Z
1]
1?
1A
1B
0C
1E
0a
1_
1$
0&
1'
1(
1*
0A
1C
1&
0(
#437500
b1111 !
b1011 !
b1001 !
b1000 !
b111 "
1I
0J
0F
0N
1P
1R
0L
0U
0S
1V
0X
1S
1U
0O
1c
1`
1\
0]
0?
0B
0E
0c
1b
0`
0^
0$
0'
0*
1]
1?
1@
1B
0D
1E
1$
0%
1'
1)
1*
#500000
b1111 "
b1011 "
b1001 "
b1001 !
b1000 "
1J
0I
0G
0M
1Q
0R
0U
0V
0\
1Y
0S
0W
1c
0b
1`
1^
0Z
1\
0Y
1X
0]
0?
0@
0B
1D
0E
1b
0`
0_
0^
1Z
0$
1%
0'
0)
0*
1]
1?
1@
1A
1B
0D
0c
0b
1`
1_
1^
0%
1'
1(
1)
1*
0]
0?
0@
0A
0B
1D
1E
1$
1%
0'
0(
0)
0*
#562500
b1011 !
b1010 !
b1001 "
1I
0J
1F
1R
0\
1[
0X
1S
0^
1]
1?
1@
1)
1*
#625000
b1011 "
b1011 !
b1010 "
1J
0I
1G
0R
1L
1\
0[
1X
1U
1^
0\
1Y
0X
0]
0?
0@
1c
0Z
0)
0*
0E
0c
0`
0_
0^
0$
1@
1A
1B
1E
1$
1'
1(
1)
#687500
b1111 !
b1101 !
b1100 !
b1011 "
1I
0J
0F
1N
1R
0L
1W
0U
0S
1O
0Y
1S
0W
1U
0O
1Z
1Y
1c
1`
1_
1^
0Z
0@
0A
0B
0E
0c
0`
0_
0^
0$
0'
0(
0)
1@
1A
1B
1E
1$
1'
1(
1)
#750000
b1111 "
b1101 "
b1101 !
b1100 "
1J
0I
0G
1M
0R
1W
0U
1O
0S
#812500
b1111 !
b1110 !
b1101 "
1I
0J
1F
1R
0Y
1S
1Z
1c
1`
1_
1^
0@
0A
0B
0E
0$
0'
0(
0)
#875000
b1111 "
b1111 !
b1110 "
1J
0I
1G
0R
1L
1Y
1U
0Z
0Y
1X
0c
1a
0`
0_
1Z
1]
1?
1A
1B
0C
1E
0a
1_
1$
0&
1'
1(
1*
0A
1C
1&
0(
#937500
b111 !
b11 !
b1 !
b0 !
b1111 "
1I
0J
0F
0N
0P
1R
0L
0U
0S
1V
0X
1S
1U
0O
1c
1`
1\
0]
0?
0B
0E
0c
1b
0`
0^
0$
0'
0*
1]
1?
1@
1B
0D
1E
1$
0%
1'
1)
1*
