17_Open Ended Lab/simulation/qsim/bdc2bin.msim.vcd
$comment
	File created using the following command:
		vcd file bdc2bin.msim.vcd -direction
$end
$date
	Thu Jan 27 20:50:52 2022
$end
$version
	ModelSim Version 2020.1
$end
$timescale
	1ps
$end

$scope module bdc2bin_vlg_vec_tst $end
$var reg 1 ! I0 $end
$var reg 1 " I1 $end
$var reg 1 # I2 $end
$var reg 1 $ I3 $end
$var reg 1 % I4 $end
$var reg 1 & I5 $end
$var reg 1 ' I6 $end
$var reg 1 ( I7 $end
$var wire 1 ) Q0 $end
$var wire 1 * Q1 $end
$var wire 1 + Q2 $end
$var wire 1 , Q3 $end
$var wire 1 - Q4 $end
$var wire 1 . Q5 $end
$var wire 1 / Q6 $end
$var wire 1 0 Q7 $end

$scope module i1 $end
$var wire 1 1 gnd $end
$var wire 1 2 vcc $end
$var wire 1 3 unknown $end
$var tri1 1 4 devclrn $end
$var tri1 1 5 devpor $end
$var tri1 1 6 devoe $end
$var wire 1 7 Q0~output_o $end
$var wire 1 8 Q1~output_o $end
$var wire 1 9 Q2~output_o $end
$var wire 1 : Q3~output_o $end
$var wire 1 ; Q4~output_o $end
$var wire 1 < Q5~output_o $end
$var wire 1 = Q6~output_o $end
$var wire 1 > Q7~output_o $end
$var wire 1 ? I0~input_o $end
$var wire 1 @ I4~input_o $end
$var wire 1 A I1~input_o $end
$var wire 1 B inst20|sub|194~combout $end
$var wire 1 C I2~input_o $end
$var wire 1 D I5~input_o $end
$var wire 1 E inst20|sub|202~0_combout $end
$var wire 1 F inst20|sub|209~0_combout $end
$var wire 1 G I6~input_o $end
$var wire 1 H I3~input_o $end
$var wire 1 I inst20|sub|210~combout $end
$var wire 1 J inst20|sub|217~0_combout $end
$var wire 1 K inst14~0_combout $end
$var wire 1 L I7~input_o $end
$var wire 1 M inst20|sub|219~combout $end
$var wire 1 N inst20|sub|222~combout $end
$var wire 1 O inst20|sub|227~combout $end
$var wire 1 P inst20|sub|230~combout $end
$var wire 1 Q inst20|sub|235~combout $end
$var wire 1 R inst20|sub|238~combout $end
$upscope $end
$upscope $end
$enddefinitions $end
#0
$dumpvars
0!
0"
0#
0$
0%
0&
0'
0(
0)
0*
0+
0,
0-
0.
0/
00
01
12
x3
14
15
16
07
08
09
0:
0;
0<
0=
0>
0?
0@
0A
0B
0C
0D
0E
0F
0G
0H
0I
0J
0K
0L
0M
0N
0O
0P
0Q
0R
$end
#62500
1$
1!
1H
1?
17
1)
1I
1:
1,
#125000
1%
1"
0$
0!
1@
1A
0H
0?
07
0)
1E
19
1+
#187500
0"
1$
1!
0A
1H
1?
17
1J
1)
0E
1B
0I
0:
18
09
0+
1*
0,
1M
1;
1-
#250000
1&
1#
0%
0$
0!
1D
1C
0@
0H
0?
07
1N
1F
0J
0)
0M
0B
08
0;
0N
0-
0*
1O
1I
1M
1;
1:
1<
1.
1,
1-
0O
0<
0.
#312500
0#
1$
1!
0C
1H
1?
17
0F
1J
1)
1E
0I
0:
19
0J
1N
1+
0,
1I
0M
0;
1:
0N
1,
0-
1M
1O
1<
1;
1-
1.
0O
0<
0.
#375000
1"
1%
1#
0$
0!
1A
1@
1C
0H
0?
07
1F
0)
1J
0I
0:
1N
0,
0M
0;
0-
1O
1<
1.
#437500
0"
0#
0A
0C
0F
1B
18
0J
1*
1I
1:
0N
1,
1M
1;
1-
0O
0<
0.
#500000
1'
0&
0%
1$
1G
0D
0@
1H
1J
1O
0I
0M
0E
0B
08
09
0;
0:
1<
1.
0,
0-
0+
0*
1M
1;
1-
#562500
1!
1%
0$
1@
0H
1?
17
1K
0J
1)
1B
18
1*
#625000
0!
1$
1H
0?
07
0)
1I
1:
1,
#687500
1"
1&
0%
1!
0$
1A
1D
0@
0H
1?
17
0K
1)
1E
1Q
0M
0;
1=
19
1+
1/
0-
0Q
1M
1;
0=
0/
1-
#750000
0"
0!
1$
0A
1H
0?
07
1J
0)
0B
0I
0:
08
1N
0*
0,
0M
0;
1P
0-
0O
0<
0.
1Q
1=
1/
#812500
1#
1%
1!
0$
1C
1@
0H
1?
17
1F
0P
1K
0J
1)
0E
1O
1B
18
1<
09
0N
0+
1.
1*
1I
1:
1,
0O
0<
0.
#875000
1"
0!
1A
0?
07
0)
1E
0B
08
19
1+
0*
#937500
1(
0'
0&
0%
1!
1L
0G
0D
0@
1?
17
0K
0F
1)
1M
1B
18
1;
1-
1*
0I
0:
0,
