16_DSD Project/Counter/simulation/qsim/seg7counter.msim.vcd
$comment
	File created using the following command:
		vcd file seg7counter.msim.vcd -direction
$end
$date
	Tue Feb 08 11:04:52 2022
$end
$version
	ModelSim Version 2020.1
$end
$timescale
	1ps
$end

$scope module seg7counter_vlg_vec_tst $end
$var reg 1 ! clk $end
$var reg 1 " crash $end
$var reg 1 # dodge $end
$var reg 1 $ reset $end
$var wire 1 % out [6] $end
$var wire 1 & out [5] $end
$var wire 1 ' out [4] $end
$var wire 1 ( out [3] $end
$var wire 1 ) out [2] $end
$var wire 1 * out [1] $end
$var wire 1 + out [0] $end

$scope module i1 $end
$var wire 1 , gnd $end
$var wire 1 - vcc $end
$var wire 1 . unknown $end
$var tri1 1 / devclrn $end
$var tri1 1 0 devpor $end
$var tri1 1 1 devoe $end
$var wire 1 2 out[0]~output_o $end
$var wire 1 3 out[1]~output_o $end
$var wire 1 4 out[2]~output_o $end
$var wire 1 5 out[3]~output_o $end
$var wire 1 6 out[4]~output_o $end
$var wire 1 7 out[5]~output_o $end
$var wire 1 8 out[6]~output_o $end
$var wire 1 9 clk~input_o $end
$var wire 1 : clk~inputclkctrl_outclk $end
$var wire 1 ; dodge~input_o $end
$var wire 1 < crash~input_o $end
$var wire 1 = i[2]~12 $end
$var wire 1 > i[3]~13_combout $end
$var wire 1 ? reset~input_o $end
$var wire 1 @ reset~inputclkctrl_outclk $end
$var wire 1 A i[3]~10_combout $end
$var wire 1 B i[3]~3_combout $end
$var wire 1 C i[3]~4_combout $end
$var wire 1 D i[0]~5_combout $end
$var wire 1 E i[1]~7_cout $end
$var wire 1 F i[1]~8_combout $end
$var wire 1 G i[1]~9 $end
$var wire 1 H i[2]~11_combout $end
$var wire 1 I WideOr6~0_combout $end
$var wire 1 J WideOr5~0_combout $end
$var wire 1 K WideOr4~0_combout $end
$var wire 1 L WideOr3~0_combout $end
$var wire 1 M WideOr2~0_combout $end
$var wire 1 N WideOr1~0_combout $end
$var wire 1 O WideOr0~0_combout $end
$var wire 1 P i [3] $end
$var wire 1 Q i [2] $end
$var wire 1 R i [1] $end
$var wire 1 S i [0] $end
$upscope $end
$upscope $end
$enddefinitions $end
#0
$dumpvars
0!
0"
0#
1$
0+
1*
1)
1(
1'
1&
1%
0,
1-
x.
1/
10
11
02
13
14
15
16
17
18
09
0:
0;
0<
0=
1>
1?
1@
0A
1B
1C
0D
0E
1F
1G
1H
0I
0J
0K
0L
0M
0N
0O
0S
0R
0Q
0P
$end
#20000
0$
1!
0?
19
0@
1:
#30000
1#
1;
0C
1A
0F
0>
0H
1D
#40000
0!
09
0:
#60000
0#
1!
0;
19
1:
1C
0A
1F
0D
1>
1H
1S
1O
1L
1K
1J
1E
0B
1D
03
04
05
08
0G
0C
0%
0(
0)
0*
0F
1=
0H
0>
#80000
0!
09
0:
#90000
1#
1;
1G
1A
0=
1F
0D
1>
1H
0H
0>
#100000
1!
19
1:
1R
0S
0O
1M
0L
0K
0G
0E
1I
0F
1D
12
14
15
06
18
1G
1%
0'
1(
1)
1+
1H
1F
0H
#120000
0#
0!
0;
09
0:
0G
0A
0F
0D
1>
1H
1=
0H
0>
#140000
1!
19
1:
#150000
1#
1;
1G
1A
0=
1F
1D
1>
1H
0H
0>
#160000
0!
09
0:
#180000
0#
1!
0;
19
1:
0G
0A
0F
0D
1>
1H
1=
0H
0>
1S
0M
1K
1E
1D
04
16
1'
0)
1F
#200000
0!
09
0:
#210000
1#
1;
1A
0=
0F
0D
1>
1H
0>
#220000
1!
19
1:
1Q
0R
0S
1O
1L
0J
1=
1G
0E
0H
1F
1D
13
05
08
0=
0%
0(
1*
1>
1H
0F
0>
#240000
0#
0!
0;
09
0:
0A
1=
1F
0D
1>
0H
0>
#260000
1!
19
1:
#270000
1#
1;
1A
0=
0F
1D
1>
1H
0>
#280000
0!
09
0:
#300000
0#
1!
0;
19
1:
0A
1=
1F
0D
1>
0H
0>
1S
0O
1N
0L
1E
1D
15
07
18
0G
1%
0&
1(
0F
1H
#320000
0!
09
0:
#330000
1#
1;
1G
1A
1F
0D
1>
0H
0=
1H
0>
#340000
1!
19
1:
1R
0S
0K
0G
0E
0F
1D
14
1=
1G
1)
0H
1F
0=
1>
1H
0>
#360000
0#
0!
0;
09
0:
0G
0A
1=
0F
0D
1>
0H
1H
0>
#380000
1!
19
1:
#390000
1#
1;
1G
1A
1F
1D
1>
0H
0=
1H
0>
#400000
0!
09
0:
#420000
0#
1!
0;
19
1:
0G
0A
1=
0F
0D
1>
0H
1H
0>
1S
0N
1L
1K
1J
1E
0I
1D
02
03
04
05
17
1&
0(
0)
0*
0+
1F
#440000
0!
09
0:
#450000
1#
1;
1A
0F
0D
1>
0H
#460000
1!
19
1:
0Q
0R
0S
1P
0L
0K
0J
1B
0=
1G
0E
1C
1I
1H
1F
1D
0>
12
13
14
15
0C
1(
1)
1*
1+
1>
0H
0F
0D
1D
#480000
0#
0!
0;
09
0:
0A
1F
0D
0>
1H
#500000
1!
19
1:
#510000
1#
1;
1A
0F
1D
1>
0H
#520000
0!
09
0:
#540000
0#
1!
0;
19
1:
0A
1F
0D
0>
1H
1S
1L
1K
1E
0B
1D
04
05
0G
0(
0)
0F
1=
0H
1>
#560000
0!
09
0:
#570000
1#
1;
1G
1C
1A
0=
1F
0D
0>
1H
0H
1>
#580000
1!
19
1:
0S
0P
0L
0K
0E
1B
0C
0I
0>
02
14
15
1(
1)
0+
0F
1D
#600000
0#
0!
0;
09
0:
1C
0A
1F
0D
1>
1H
#620000
1!
19
1:
#630000
1#
1;
0C
1A
0F
0>
0H
1D
#640000
0!
09
0:
#660000
0#
1!
0;
19
1:
1C
0A
1F
0D
1>
1H
1S
1O
1L
1K
1J
1E
0B
1D
03
04
05
08
0G
0C
0%
0(
0)
0*
0F
1=
0H
0>
#680000
0!
09
0:
#690000
1#
1;
1G
1A
0=
1F
0D
1>
1H
0H
0>
#700000
1!
19
1:
1R
0S
0O
1M
0L
0K
0G
0E
1I
0F
1D
12
14
15
06
18
1G
1%
0'
1(
1)
1+
1H
1F
0H
#720000
0#
0!
0;
09
0:
0G
0A
0F
0D
1>
1H
1=
0H
0>
#740000
1!
19
1:
#750000
1#
1;
1G
1A
0=
1F
1D
1>
1H
0H
0>
#760000
0!
09
0:
#780000
0#
1!
0;
19
1:
0G
0A
0F
0D
1>
1H
1=
0H
0>
1S
0M
1K
1E
1D
04
16
1'
0)
1F
#800000
0!
09
0:
#810000
1#
1;
1A
0=
0F
0D
1>
1H
0>
#820000
1!
19
1:
1Q
0R
0S
1O
1L
0J
1=
1G
0E
0H
1F
1D
13
05
08
0=
0%
0(
1*
1>
1H
0F
0>
#840000
0#
0!
0;
09
0:
0A
1=
1F
0D
1>
0H
0>
#860000
1!
19
1:
#870000
1#
1;
1A
0=
0F
1D
1>
1H
0>
#880000
0!
09
0:
#900000
0#
1!
0;
19
1:
0A
1=
1F
0D
1>
0H
0>
1S
0O
1N
0L
1E
1D
15
07
18
0G
1%
0&
1(
0F
1H
#920000
0!
09
0:
#930000
1#
1;
1G
1A
1F
0D
1>
0H
0=
1H
0>
#940000
1!
19
1:
1R
0S
0K
0G
0E
0F
1D
14
1=
1G
1)
0H
1F
0=
1>
1H
0>
#960000
0#
0!
0;
09
0:
0G
0A
1=
0F
0D
1>
0H
1H
0>
#980000
1!
19
1:
#990000
1#
1;
1G
1A
1F
1D
1>
0H
0=
1H
0>
