5_Dec_Exercise2/simulation/qsim/OR4to1.msim.vcd
$comment
	File created using the following command:
		vcd file OR4to1.msim.vcd -direction
$end
$date
	Fri Oct 29 17:01:12 2021
$end
$version
	ModelSim Version 2020.1
$end
$timescale
	1ps
$end

$scope module OR4to1_vlg_vec_tst $end
$var reg 1 ! En $end
$var reg 2 " s [1:0] $end
$var reg 4 # w [3:0] $end
$var wire 1 $ f $end

$scope module i1 $end
$var wire 1 % gnd $end
$var wire 1 & vcc $end
$var wire 1 ' unknown $end
$var tri1 1 ( devclrn $end
$var tri1 1 ) devpor $end
$var tri1 1 * devoe $end
$var wire 1 + f~output_o $end
$var wire 1 , s[1]~input_o $end
$var wire 1 - w[2]~input_o $end
$var wire 1 . w[0]~input_o $end
$var wire 1 / En~input_o $end
$var wire 1 0 WideOr0~1_combout $end
$var wire 1 1 s[0]~input_o $end
$var wire 1 2 w[1]~input_o $end
$var wire 1 3 w[3]~input_o $end
$var wire 1 4 WideOr0~0_combout $end
$var wire 1 5 WideOr0~2_combout $end
$upscope $end
$upscope $end
$enddefinitions $end
#0
$dumpvars
1!
b0 "
b10 #
0$
0%
1&
x'
1(
1)
1*
0+
0,
0-
0.
1/
00
01
12
03
14
05
$end
#10000
b110 #
b111 #
1.
1-
10
15
1+
1$
#20000
b1111 #
b1110 #
0.
13
00
05
0+
0$
#30000
b1010 #
0-
#40000
b10 #
b110 #
1-
03
#50000
b111 #
b1111 #
1.
13
10
15
1+
1$
#60000
b1101 #
b1001 #
b1000 #
b0 #
0.
02
0-
03
00
04
05
0+
0$
#70000
b100 #
b101 #
b1101 #
1.
1-
13
10
15
1+
1$
#80000
b1111 #
b1011 #
12
0-
14
#90000
b1111 #
1-
#100000
b1110 #
0.
00
05
0+
0$
#110000
b1010 #
0-
#120000
b10 #
b0 #
02
03
04
#125000
b1 "
11
#130000
b1 #
b11 #
1.
12
10
14
15
1+
1$
#140000
b111 #
b110 #
0.
1-
00
#150000
b1110 #
b1100 #
02
13
04
05
0+
0$
#160000
b1000 #
0-
#170000
b0 #
b10 #
12
03
14
15
1+
1$
#180000
b110 #
b100 #
02
1-
04
05
0+
0$
#190000
b110 #
12
14
15
1+
1$
#200000
b111 #
b1111 #
b1011 #
b1001 #
1.
02
0-
13
10
04
05
0+
0$
#210000
b1000 #
b0 #
b10 #
0.
12
03
00
14
15
1+
1$
#220000
b110 #
b100 #
02
1-
04
05
0+
0$
#230000
b101 #
b1101 #
b1111 #
1.
12
13
10
14
15
1+
1$
#240000
b111 #
03
#250000
b11 "
b10 "
b11 #
b10 #
b1010 #
0.
0-
13
01
1,
00
05
0+
0$
#260000
b1000 #
b1100 #
b1101 #
b101 #
1.
02
1-
03
10
04
15
1+
1$
#270000
b111 #
12
#280000
b1111 #
b1101 #
02
13
14
#290000
b1001 #
b1 #
0-
03
00
04
05
0+
0$
#300000
b101 #
b1101 #
1-
13
10
14
15
1+
1$
#310000
b1111 #
b1011 #
b11 #
12
0-
03
04
00
05
0+
0$
#330000
b10 #
b0 #
b1000 #
0.
02
13
14
#340000
b1100 #
1-
10
15
1+
1$
#350000
b1101 #
b1111 #
b111 #
1.
12
03
04
#360000
b11 #
b10 #
b0 #
0.
02
0-
00
05
0+
0$
#370000
b1000 #
b1100 #
b1110 #
12
1-
13
14
10
15
1+
1$
#375000
b11 "
11
#380000
b1111 #
b111 #
b11 #
1.
0-
03
00
04
05
0+
0$
#390000
b1 #
02
#400000
b0 #
b100 #
b110 #
0.
12
1-
10
#410000
b1110 #
b1100 #
02
13
14
15
1+
1$
#420000
b1000 #
b0 #
b10 #
12
0-
03
04
00
05
0+
0$
#430000
b11 #
b111 #
b1111 #
b1101 #
1.
02
1-
13
10
14
15
1+
1$
#440000
b1100 #
b100 #
b110 #
0.
12
03
04
05
0+
0$
#450000
b10 #
b0 #
02
0-
00
#460000
b1 #
b1001 #
b1101 #
1.
1-
13
10
14
15
1+
1$
#470000
b1111 #
b1110 #
b1010 #
0.
12
0-
00
#480000
b10 #
03
04
05
0+
0$
#490000
b110 #
b1110 #
1-
13
10
14
15
1+
1$
#500000
0!
b1 "
b0 "
b1100 #
0/
02
01
0,
04
00
05
0+
0$
#520000
b1000 #
b0 #
0-
03
#530000
b100 #
1-
#540000
b101 #
b111 #
b1111 #
b1011 #
1.
12
0-
13
#550000
b1111 #
1-
#560000
b1110 #
b110 #
0.
03
#570000
b100 #
b0 #
b1000 #
02
0-
13
#580000
b1010 #
b1110 #
b110 #
12
1-
03
#590000
b111 #
1.
#600000
b11 #
b1011 #
0-
13
#610000
b1001 #
02
#620000
b1000 #
b1100 #
b100 #
0.
1-
03
#625000
b1 "
11
#630000
b110 #
b111 #
b11 #
b1011 #
1.
12
0-
13
#640000
b1001 #
02
#650000
b1000 #
b1100 #
b1110 #
0.
12
1-
#660000
b1100 #
02
#670000
b100 #
b0 #
b10 #
12
0-
03
#680000
b110 #
b100 #
02
1-
#690000
b1100 #
b1000 #
b1010 #
12
0-
13
#700000
b1011 #
b11 #
b1 #
1.
02
03
#710000
b1001 #
13
#720000
b1101 #
1-
#730000
b1100 #
b1110 #
b110 #
b10 #
0.
12
0-
03
#740000
b11 #
b1011 #
b1111 #
1.
1-
13
#750000
b11 "
b10 "
01
1,
#760000
b1101 #
b1100 #
b100 #
b0 #
0.
02
0-
03
#770000
b1000 #
b1100 #
1-
13
#780000
b1101 #
b101 #
1.
03
#790000
b100 #
0.
#800000
b0 #
b1 #
1.
0-
#810000
b11 #
b10 #
0.
12
#820000
b1010 #
b1000 #
b1001 #
1.
02
13
#830000
b1101 #
b1111 #
12
1-
#840000
b111 #
b101 #
02
03
#850000
b100 #
b0 #
b1000 #
0.
0-
13
#860000
b0 #
03
#870000
b10 #
b11 #
b111 #
b1111 #
1.
12
1-
13
#875000
b11 "
11
#890000
b1101 #
b1100 #
0.
02
#900000
b1000 #
b1010 #
12
0-
#910000
b1011 #
b1001 #
1.
02
#920000
b1 #
b0 #
0.
03
#930000
b1000 #
b1001 #
1.
13
#940000
b1101 #
b1100 #
0.
1-
#950000
b1110 #
b110 #
12
03
#960000
b10 #
b0 #
02
0-
#970000
b1000 #
b1100 #
1-
13
#980000
b1101 #
b1111 #
b111 #
b11 #
1.
12
0-
03
