7_ALU Quiz/simulation/qsim/ALU8to1.msim.vcd
$comment
	File created using the following command:
		vcd file ALU8to1.msim.vcd -direction
$end
$date
	Sat Nov 20 20:01:00 2021
$end
$version
	ModelSim Version 2020.1
$end
$timescale
	1ps
$end

$scope module ALU8to1_vlg_vec_tst $end
$var reg 1 ! a $end
$var reg 1 " b $end
$var reg 1 # cin $end
$var reg 3 $ sel [2:0] $end
$var wire 1 % cout $end
$var wire 1 & o [7] $end
$var wire 1 ' o [6] $end
$var wire 1 ( o [5] $end
$var wire 1 ) o [4] $end
$var wire 1 * o [3] $end
$var wire 1 + o [2] $end
$var wire 1 , o [1] $end
$var wire 1 - o [0] $end

$scope module i1 $end
$var wire 1 . gnd $end
$var wire 1 / vcc $end
$var wire 1 0 unknown $end
$var tri1 1 1 devclrn $end
$var tri1 1 2 devpor $end
$var tri1 1 3 devoe $end
$var wire 1 4 o[0]~output_o $end
$var wire 1 5 o[1]~output_o $end
$var wire 1 6 o[2]~output_o $end
$var wire 1 7 o[3]~output_o $end
$var wire 1 8 o[4]~output_o $end
$var wire 1 9 o[5]~output_o $end
$var wire 1 : o[6]~output_o $end
$var wire 1 ; o[7]~output_o $end
$var wire 1 < cout~output_o $end
$var wire 1 = sel[1]~input_o $end
$var wire 1 > sel[2]~input_o $end
$var wire 1 ? b~input_o $end
$var wire 1 @ sel[0]~input_o $end
$var wire 1 A Mux0~2_combout $end
$var wire 1 B cin~input_o $end
$var wire 1 C a~input_o $end
$var wire 1 D Mux0~0_combout $end
$var wire 1 E Mux0~1_combout $end
$var wire 1 F Mux0~3_combout $end
$var wire 1 G Add2~0_combout $end
$var wire 1 H Mux1~0_combout $end
$var wire 1 I Mux2~0_combout $end
$var wire 1 J cout$latch~combout $end
$upscope $end
$upscope $end
$enddefinitions $end
#0
$dumpvars
0!
0"
0#
b0 $
x%
0-
0,
0+
0*
0)
0(
0'
0&
0.
1/
x0
11
12
13
04
05
06
07
08
09
0:
0;
x<
0=
0>
0?
0@
0A
0B
0C
0D
0E
0F
1G
0H
1I
xJ
$end
#125000
b1 $
1@
1H
#250000
b11 $
b10 $
0@
1=
1E
0G
0H
#375000
b11 $
1@
#500000
b111 $
b101 $
b100 $
0@
0=
1>
0I
0E
1A
1G
0J
1F
14
15
16
17
18
19
1:
1;
0<
0%
1&
1'
1(
1)
1*
1+
1,
1-
#625000
b101 $
1@
1H
1E
1J
1<
1%
#750000
b111 $
b110 $
0@
1=
0A
0G
0H
0F
04
05
06
07
08
09
0:
0;
0&
0'
0(
0)
0*
0+
0,
0-
0J
0<
0%
#875000
b111 $
1@
1I
0E
1A
1F
14
15
16
17
18
19
1:
1;
1&
1'
1(
1)
1*
1+
1,
1-
