15_Lab9(2.1)/simulation/qsim/AsynBinUp.msim.vcd
$comment
	File created using the following command:
		vcd file AsynBinUp.msim.vcd -direction
$end
$date
	Sun Jan 16 22:46:54 2022
$end
$version
	ModelSim Version 2020.1
$end
$timescale
	1ps
$end

$scope module AsynBinUp_vlg_vec_tst $end
$var reg 1 ! A1 $end
$var reg 1 " A2 $end
$var reg 1 # B1 $end
$var reg 1 $ B2 $end
$var wire 1 % F1 $end
$var wire 1 & F2 $end
$var wire 1 ' F3 $end
$var wire 1 ( F4 $end

$scope module i1 $end
$var wire 1 ) gnd $end
$var wire 1 * vcc $end
$var wire 1 + unknown $end
$var tri1 1 , devclrn $end
$var tri1 1 - devpor $end
$var tri1 1 . devoe $end
$var wire 1 / F1~output_o $end
$var wire 1 0 F2~output_o $end
$var wire 1 1 F3~output_o $end
$var wire 1 2 F4~output_o $end
$var wire 1 3 A2~input_o $end
$var wire 1 4 B2~input_o $end
$var wire 1 5 inst~1_combout $end
$var wire 1 6 B1~input_o $end
$var wire 1 7 B1~inputclkctrl_outclk $end
$var wire 1 8 inst~3_combout $end
$var wire 1 9 inst~0_combout $end
$var wire 1 : inst~_emulated_q $end
$var wire 1 ; inst~2_combout $end
$var wire 1 < A1~input_o $end
$var wire 1 = inst1~0_combout $end
$var wire 1 > A2~inputclkctrl_outclk $end
$var wire 1 ? inst1~q $end
$var wire 1 @ inst2~0_combout $end
$var wire 1 A inst2~q $end
$var wire 1 B inst3~0_combout $end
$var wire 1 C inst3~1_combout $end
$var wire 1 D inst3~q $end
$upscope $end
$upscope $end
$enddefinitions $end
#0
$dumpvars
0!
0"
1#
1$
0%
0&
0'
0(
0)
1*
x+
1,
1-
1.
0/
00
01
02
03
14
05
16
17
18
19
0:
0;
0<
1=
0>
0?
1@
0A
0B
1C
0D
$end
#1280000
1"
13
1>
09
#2500000
0#
06
07
1:
1?
1A
1D
12
11
10
1B
1&
1'
1(
1;
0=
0C
1/
1%
1C
1=
08
#5000000
1#
16
17
#7500000
0#
06
07
0:
0;
0/
0%
0=
18
#10000000
1#
16
17
#12500000
0#
06
07
1:
0?
00
0&
1;
0@
1=
1/
1%
1@
0=
08
#15000000
1#
16
17
#17500000
0#
06
07
0:
0;
0/
0%
0@
1=
18
#20000000
1#
16
17
#22500000
0#
06
07
1:
1?
0A
01
10
1&
0'
1;
0=
1/
1%
1=
08
#25000000
1#
16
17
#27500000
0#
06
07
0:
0;
0/
0%
0=
18
#30000000
1#
16
17
#32500000
0#
06
07
1:
0?
00
0B
0&
1;
1@
1=
1/
1%
0@
0=
08
#35000000
1#
16
17
#37500000
0#
06
07
0:
0;
0/
0%
0C
1@
1=
18
#40000000
1#
16
17
#42500000
0#
06
07
1:
1?
1A
0D
02
11
10
1B
1&
1'
0(
1;
0=
1C
1/
1%
0C
1=
08
#45000000
1#
16
17
#47500000
0#
06
07
0:
0;
0/
0%
0=
18
#50000000
1#
16
17
#52500000
0#
06
07
1:
0?
00
0&
1;
0@
1=
1/
1%
1@
0=
08
#55000000
1#
16
17
#57500000
0#
06
07
0:
0;
0/
0%
0@
1=
18
#60000000
1#
16
17
#62500000
0#
06
07
1:
1?
0A
01
10
1&
0'
1;
0=
1/
1%
1=
08
#65000000
1#
16
17
#67500000
0#
06
07
0:
0;
0/
0%
0=
18
#70000000
1#
16
17
#72500000
0#
06
07
1:
0?
00
0B
0&
1;
1@
1=
1/
1%
0@
0=
08
#75000000
1#
16
17
#77500000
0#
06
07
0:
0;
0/
0%
1C
1@
1=
18
#80000000
1#
16
17
#82500000
0#
06
07
1:
1?
1A
1D
12
11
10
1B
1&
1'
1(
1;
0=
0C
1/
1%
1C
1=
08
